com\graphhopper\routing\AStarTest.class
com\graphhopper\routing\util\EncodingManagerTest$4.class
com\graphhopper\routing\DijkstraOneToManyTest$2.class
com\graphhopper\routing\QueryGraphTest.class
com\graphhopper\reader\OSMReaderTest$2.class
com\graphhopper\util\AbstractBitUtilTester.class
com\graphhopper\storage\AbstractGraphStorageTester.class
com\graphhopper\routing\DijkstraBidirectionTest$1.class
com\graphhopper\util\GHUtilityTest.class
com\graphhopper\reader\dem\SRTMProviderTest.class
com\graphhopper\reader\OSMReaderTest$1$1.class
com\graphhopper\GraphHopperTest$2.class
com\graphhopper\coll\IntDoubleBinHeapTest.class
com\graphhopper\routing\ch\DijkstraBidirectionCHTest.class
com\graphhopper\routing\util\EncodingManagerTest.class
com\graphhopper\storage\index\Location2IDFullIndexTest.class
com\graphhopper\storage\GraphHopperStorageWithTurnCostsTest.class
com\graphhopper\coll\OSMIDSegmentedMapTest.class
com\graphhopper\routing\PathTest.class
com\graphhopper\util\shapes\BBoxTest$1.class
com\graphhopper\storage\EdgeTest.class
com\graphhopper\GraphHopperAPITest.class
com\graphhopper\util\shapes\GHPoint3DTest.class
com\graphhopper\storage\SimpleFSLockFactoryTest.class
com\graphhopper\util\InstructionTest.class
com\graphhopper\storage\GraphStorageViaMMapTest.class
com\graphhopper\routing\util\BikeFlagEncoderTest.class
com\graphhopper\util\AngleCalcTest.class
com\graphhopper\routing\RoutingAlgorithmIT$1$1.class
com\graphhopper\routing\DijkstraBidirectionTest.class
com\graphhopper\storage\MMapDirectoryTest.class
com\graphhopper\routing\util\Bike2WeightFlagEncoderTest.class
com\graphhopper\GraphHopperTest$1.class
com\graphhopper\routing\AStarTest$1.class
com\graphhopper\routing\util\PrepareRoutingSubnetworksTest.class
com\graphhopper\GraphHopperTest.class
com\graphhopper\routing\DijkstraBidirectionRefTest.class
com\graphhopper\reader\OSMReaderTest$3.class
com\graphhopper\routing\util\MountainBikeFlagEncoderTest.class
com\graphhopper\routing\util\FastestWeightingTest$1.class
com\graphhopper\util\HelperTest.class
com\graphhopper\routing\ch\PrepareContractionHierarchiesTest.class
com\graphhopper\util\QueryTortureTest.class
com\graphhopper\routing\AbstractRoutingAlgorithmTester.class
com\graphhopper\util\shapes\CircleTest.class
com\graphhopper\reader\OSMElementTest.class
com\graphhopper\util\XFirstSearchTest$2.class
com\graphhopper\util\DouglasPeuckerTest.class
com\graphhopper\storage\VLongStorageTest.class
com\graphhopper\storage\AbstractLockFactoryTester.class
com\graphhopper\coll\IntIntBinHeapTest.class
com\graphhopper\coll\CompressedArrayTest.class
com\graphhopper\util\EdgeSkipIteratorTest.class
com\graphhopper\routing\util\EncodingManagerTest$3.class
com\graphhopper\coll\BitSetImplTest.class
com\graphhopper\routing\util\AbstractBikeFlagEncoderTester.class
com\graphhopper\coll\GHTBitSetTest.class
com\graphhopper\reader\PrinctonReaderTest.class
com\graphhopper\geohash\LinearKeyAlgoTest.class
com\graphhopper\search\NameIndexTest.class
com\graphhopper\storage\index\LocationIndexTreeTest$1.class
com\graphhopper\reader\OSMReaderTest.class
com\graphhopper\storage\NativeFSLockFactoryTest.class
com\graphhopper\reader\OSMReaderTest$6$1.class
com\graphhopper\storage\index\LocationIndexTreeSCTest$1.class
com\graphhopper\reader\dem\HeightTileTest.class
com\graphhopper\storage\AbstractGraphStorageTester$TmpCarFlagEncoder.class
com\graphhopper\util\shapes\GHPointTest.class
com\graphhopper\storage\SynchedDAWrapperTest.class
com\graphhopper\storage\LevelGraphStorageTest.class
com\graphhopper\routing\DijkstraTest.class
com\graphhopper\reader\OSMReaderTest$5.class
com\graphhopper\reader\dem\CGIARProviderTest.class
com\graphhopper\routing\DijkstraTest$1.class
com\graphhopper\storage\AlternativePathsTest.class
com\graphhopper\routing\util\EncodedValueTest.class
com\graphhopper\reader\OSMReaderTest$4.class
com\graphhopper\routing\DijkstraOneToManyTest.class
com\graphhopper\storage\index\Location2IDQuadtreeTest.class
com\graphhopper\util\XFirstSearchTest.class
com\graphhopper\storage\index\BresenhamLineTest$2.class
com\graphhopper\routing\RoutingAlgorithmIT.class
com\graphhopper\coll\AbstractMyBitSetTest.class
com\graphhopper\routing\util\FootFlagEncoderTest.class
com\graphhopper\routing\GraphHopperIT.class
com\graphhopper\storage\UnsafeDataAccessTest.class
com\graphhopper\routing\util\AbstractFlagEncoderTest.class
com\graphhopper\coll\SparseLongLongArrayTest.class
com\graphhopper\routing\util\EncodedDoubleValueTest.class
com\graphhopper\util\InstructionListTest$1.class
com\graphhopper\routing\util\RacingBikeFlagEncoderTest.class
com\graphhopper\geohash\SpatialKeyAlgoTest.class
com\graphhopper\storage\StorablePropertiesTest.class
com\graphhopper\coll\BigLongIntMapTest.class
com\graphhopper\storage\index\LocationIndexTreeSCTest.class
com\graphhopper\storage\index\AbstractLocationIndexTester.class
com\graphhopper\storage\index\BresenhamLineTest.class
com\graphhopper\routing\RoutingAlgorithmIT$1.class
com\graphhopper\routing\QueryGraphTest$1.class
com\graphhopper\routing\DijkstraBidirectionRefTest$1.class
com\graphhopper\routing\util\EncodingManagerTest$1.class
com\graphhopper\routing\DijkstraOneToManyTest$3.class
com\graphhopper\routing\util\EncodingManagerTest$2.class
com\graphhopper\storage\RAMDirectoryTest.class
com\graphhopper\util\EdgeWrapperTest.class
com\graphhopper\util\InstructionListTest.class
com\graphhopper\routing\util\FastestWeightingTest.class
com\graphhopper\coll\GHTreeMapComposedTest.class
com\graphhopper\reader\OSMReaderTest$GraphHopperTest.class
com\graphhopper\util\shapes\CoordTrigTest.class
com\graphhopper\storage\MMapDataAccessTest.class
com\graphhopper\util\BitUtilLittleTest.class
com\graphhopper\storage\GraphHopperStorageTest.class
com\graphhopper\coll\GHLongIntBTreeTest.class
com\graphhopper\storage\RAMIntDataAccessTest.class
com\graphhopper\reader\OSMNodeTest.class
com\graphhopper\routing\AStarBidirectionTest$1.class
com\graphhopper\routing\util\CarFlagEncoderTest.class
com\graphhopper\routing\PathBidirRefTest.class
com\graphhopper\coll\AbstractBinHeapTest.class
com\graphhopper\routing\ch\PrepareEncoderTest.class
com\graphhopper\storage\index\Location2IDFullWithEdgesIndexTest.class
com\graphhopper\storage\index\LocationIndexTreeTest.class
com\graphhopper\reader\OSMReaderTest$1.class
com\graphhopper\GHRequestTest.class
com\graphhopper\util\PointListTest.class
com\graphhopper\coll\GHSortedCollectionTest.class
com\graphhopper\util\shapes\BBoxTest$2.class
com\graphhopper\routing\AStarBidirectionTest.class
com\graphhopper\storage\RAMDataAccessTest.class
com\graphhopper\util\TranslationMapTest.class
com\graphhopper\util\SimpleIntDequeTest.class
com\graphhopper\storage\AbstractDirectoryTester.class
com\graphhopper\coll\OSMIDMapTest.class
com\graphhopper\routing\AbstractRoutingAlgorithmTester$1.class
com\graphhopper\util\BitUtilBigTest.class
com\graphhopper\util\shapes\BBoxTest.class
com\graphhopper\storage\DataAccessTest.class
com\graphhopper\util\XFirstSearchTest$1.class
com\graphhopper\reader\OSMReaderTest$6.class
com\graphhopper\storage\index\BresenhamLineTest$1.class
com\graphhopper\routing\ch\DijkstraBidirectionCHTest$1.class
com\graphhopper\util\DistanceCalcEarthTest.class
com\graphhopper\routing\DijkstraOneToManyTest$1.class
